{
    "env": "dev-MYENV",
    "client_id": "DISCORD_BOT_CLIENT_ID",
    "token": "DISCORD_BOT_CLIENT_TOKEN",
    "prefix": "!",
    "discordServers": {
        "DISCORD_SERVER1_ID": {
            "name": "DISCORD_SERVER1 Human Readable Name",
            "apiKeyIndex": 0,
            "apiKeys": [
                "TORN API KEY 1",
                "TORN API KEY 2"
            ],
            "channels": {
                "general": "DISCORD_CHANNEL_FOR_GENERAL",
                "revives": "DISCORD_CHANNEL_FOR_revives",
                "botStatus": "DISCORD_CHANNEL_FOR_botStatus",
                "stocks": "DISCORD_CHANNEL_FOR_stocks"
            },
            "reviversRole": "Revives",
            "botAdminroles": [
                "botAdmin"
            ]
        },
        "DISCORD_SERVER2_ID": {
            "name": "DISCORD_SERVER1 Human Readable Name",
            "apiKeyIndex": 0,
            "apiKeys": [
                "TORN API KEY 1",
                "TORN API KEY 2"
            ],
            "channels": {
                "general": "DISCORD_CHANNEL_FOR_GENERAL",
                "revives": "DISCORD_CHANNEL_FOR_revives",
                "botStatus": "DISCORD_CHANNEL_FOR_botStatus",
                "stocks": "DISCORD_CHANNEL_FOR_stocks"
            },
            "reviversRole": "Revives",
            "botAdminroles": [
                "botAdmin"
            ]
        }
    }
}